Larger City,Second City,Population City 1,Population City 2,Population,Distance (km),Estimated Cost,Cost per person,Cost per person per km,Time,Direction,"$889,360,000,000.00","$1,573.35",Redundant to:
Mexico City,Acapulco,,,"21,000,000",380,"$7,600,000,000.00",$361.90,$0.95,1.266666667,,,,
Boston,Albany,"7,991,371",,"9,000,000",273,"$5,460,000,000.00",$606.67,$2.22,0.91,,,,
New York,Albany,"23,362,099",,"25,000,000",245,"$4,900,000,000.00",$196.00,$0.80,0.8166666667,,,,
Rochester,Albany,,,"2,900,000",365,"$7,300,000,000.00","$2,517.24",$6.90,1.216666667,,,,
Denver,Albuquerque,,,"4,300,000",723,"$14,460,000,000.00","$3,362.79",$4.65,2.41,,,,
Dallas,Austin,,,"8,500,000",314,"$6,280,000,000.00",$738.82,$2.35,1.046666667,,,,
San Antonio,Austin,,,"4,000,000",128,"$2,560,000,000.00",$640.00,$5.00,0.4266666667,,,,
Atlanta,Birmingham,"6,092,295",,7400000,236,"$4,720,000,000.00",$637.84,$2.70,0.7866666667,,,,
Memphis,Birmingham,,,"2,700,000",384,"$7,680,000,000.00","$2,844.44",$7.41,1.28,,,,
New Orleans,Birmingham,,,"2,700,000",553,"$11,060,000,000.00","$4,096.30",$7.41,1.843333333,,,,
Cleveland,Buffalo,,,"4,900,000",305,"$6,100,000,000.00","$1,244.90",$4.08,1.016666667,,,,
New York,Buffalo,"23,362,099",,"23,000,000",612,"$12,240,000,000.00",$532.17,$0.87,2.04,,,,
Toronto,Buffalo,,,"7,100,000",160,"$3,200,000,000.00",$450.70,$2.82,0.5333333333,,,,
Sarasota,Cape Coral,,,"1,800,000",130,"$2,600,000,000.00","$1,444.44",$11.11,0.4333333333,,,,
Atlanta,Chattanooga,"6,092,295","936,142","7,000,000",189,"$3,780,000,000.00",$540.00,$2.86,0.63,,,,
Nashville,Chattanooga,,,"3,200,000",215,"$4,300,000,000.00","$1,343.75",$6.25,0.7166666667,,,,
Dayton,Cincinnati,,,"3,000,000",87,"$1,740,000,000.00",$580.00,$6.67,0.29,,,,
Indianapolis,Cincinnati,,,"4,100,000",175,"$3,500,000,000.00",$853.66,$4.88,0.5833333333,,,,
Chicago,Cleveland,"9,899,902",,"13,000,000",470,"$9,400,000,000.00",$723.08,$1.54,1.566666667,,,,
Detroit,Cleveland,,,"8,800,000",279,"$5,580,000,000.00",$634.09,$2.27,0.93,,,,
Greenville,Columbia,,,"2,000,000",166,"$3,320,000,000.00","$1,660.00",$10.00,0.5533333333,,,,
Dayton,"Columbus, Ohio",,,"3,000,000",114,"$2,280,000,000.00",$760.00,$6.67,0.38,,,,
Pittsburgh,"Columbus, Ohio",,,"5,000,000",297,"$5,940,000,000.00","$1,188.00",$4.00,0.99,,,,
Indianapolis,Dayton,,,"3,300,000",187,"$3,740,000,000.00","$1,133.33",$6.06,0.6233333333,,,,
Calgary,Edmonton,,,"2,700,000",300,"$6,000,000,000.00","$2,222.22",$7.41,1,,,,
Albuquerque,El Paso,"1,162,777",,"2,200,000",431,"$8,620,000,000.00","$3,918.18",$9.09,1.436666667,,,,
Dallas,El Paso,,,"7,000,000",1022,"$20,440,000,000.00","$2,920.00",$2.86,3.406666667,,,,
Tucson,El Paso,,,"2,000,000",510,"$10,200,000,000.00","$5,100.00",$10.00,1.7,,,,
Los Angeles,Fresno,"18,238,998",,"20,000,000",355,"$7,100,000,000.00",$355.00,$1.00,1.183333333,,,,
Sacramento,Fresno,,,"2,500,000",282,"$5,640,000,000.00","$2,256.00",$8.00,0.94,,,,
Chicago,Grand Rapids,"9,899,902",,"11,000,000",286,"$5,720,000,000.00",$520.00,$1.82,0.9533333333,,,,
Detroit,Grand Rapids,,,"6,700,000",253,"$5,060,000,000.00",$755.22,$2.99,0.8433333333,,,,
Charlotte,Greensboro,"2,454,619",,"4,000,000",148,"$2,960,000,000.00",$740.00,$5.00,0.4933333333,,,,
Raleigh,Greensboro,,,"3,600,000",123,"$2,460,000,000.00",$683.33,$5.56,0.41,,,,
Atlanta,Greenville,"6,092,295",,7400000,234,"$4,680,000,000.00",$632.43,$2.70,0.78,,,,
Charlotte,Greenville,"2,454,619",,"3,900,000",163,"$3,260,000,000.00",$835.90,$5.13,0.5433333333,,,,
Mexico City,Guadalajara,,,"24,500,000",540,"$10,800,000,000.00",$440.82,$0.82,1.8,,,,
Philadelphia,Harrisburg,"7,991,371",,"8,300,000",172,"$3,440,000,000.00",$414.46,$2.41,0.5733333333,,,,
Pittsburgh,Harrisburg,,,"3,800,000",328,"$6,560,000,000.00","$1,726.32",$5.26,1.093333333,,,,
Washington DC,Harrisburg,"9,331,587",,"10,500,000",80,"$1,600,000,000.00",$152.38,$1.90,0.2666666667,,,,
Boston,Hartford,"7,991,371",,"10,000,000",165,"$3,300,000,000.00",$330.00,$2.00,0.55,,,,
New York,Hartford,"23,362,099",,"24,000,000",188,"$3,760,000,000.00",$156.67,$0.83,0.6266666667,,,,
Austin,Houston,"1,834,303",,"9,000,000",260,"$5,200,000,000.00",$577.78,$2.22,0.8666666667,,,,
Dallas,Houston,,,"12,900,000",388,"$7,760,000,000.00",$601.55,$1.55,1.293333333,,,,
Chicago,Indianapolis,"9,899,902",,"12,000,000",293,"$5,860,000,000.00",$488.33,$1.67,0.9766666667,,,,
St. Louis,Indianapolis,,,"5,200,000",390,"$7,800,000,000.00","$1,500.00",$3.85,1.3,,,,
Atlanta,Jacksonville,"6,092,295",,"7,600,000",567,"$11,340,000,000.00","$1,492.11",$2.63,1.89,,,,
Orlando,Jacksonville,,,"4,400,000",227,"$4,540,000,000.00","$1,031.82",$4.55,0.7566666667,,,,
Denver,Kansas City,,,"5,700,000",972,"$19,440,000,000.00","$3,410.53",$3.51,3.24,,,,
St. Louis,Kansas City,,,"5,200,000",398,"$7,960,000,000.00","$1,530.77",$3.85,1.326666667,,,,
Charlotte,Knoxville,"2,454,619",,"3,500,000",371,"$7,420,000,000.00","$2,120.00",$5.71,1.236666667,,,,
Nashville,Knoxville,,,"3,000,000",288,"$5,760,000,000.00","$1,920.00",$6.67,0.96,,,,
Los Angeles,Las Vegas,"18,238,998",,"21,000,000",435,"$8,700,000,000.00",$414.29,$0.95,1.45,,,,
Salt Lake City,Las Vegas,,,"4,600,000",676,"$13,520,000,000.00","$2,939.13",$4.35,2.253333333,,,,
Guadalajara,Leon,,,"6,000,000",220,"$4,400,000,000.00",$733.33,$3.33,0.7333333333,,,,
Dallas,Little Rock,,,"7,500,000",514,"$10,280,000,000.00","$1,370.67",$2.67,1.713333333,,,,
Memphis,Little Rock,,,"2,200,000",221,"$4,420,000,000.00","$2,009.09",$9.09,0.7366666667,,,,
Oklahoma City,Little Rock,,,"2,200,000",545,"$10,900,000,000.00","$4,954.55",$9.09,1.816666667,,,,
Cincinnati,Louisville,,,"3,600,000",160,"$3,200,000,000.00",$888.89,$5.56,0.5333333333,,,,
Indianapolis,Louisville,,,"3,800,000",184,"$3,680,000,000.00",$968.42,$5.26,0.6133333333,,,,
Nashville,Louisville,,,"3,500,000",283,"$5,660,000,000.00","$1,617.14",$5.71,0.9433333333,,,,
St. Louis,Louisville,,,"4,300,000",418,"$8,360,000,000.00","$1,944.19",$4.65,1.393333333,,,,
"San Jose, Costa Rica",Managua,,,"3,400,000",420,"$8,400,000,000.00","$2,470.59",$5.88,1.4,,,,
Monterrey,McAllen,,,"5,000,000",241,"$4,820,000,000.00",$964.00,$4.00,0.8033333333,,,,
San Antonio,McAllen,,,"3,000,000",383,"$7,660,000,000.00","$2,553.33",$6.67,1.276666667,,,,
Nashville,Memphis,,,"3,400,000",341,"$6,820,000,000.00","$2,005.88",$5.88,1.136666667,,,,
Cape Coral,Miami,"977,720",,"7,300,000",250,"$5,000,000,000.00",$684.93,$2.74,0.8333333333,,,,
Chicago,Milwaukee,"9,899,902",,"12,000,000",149,"$2,980,000,000.00",$248.33,$1.67,0.4966666667,,,,
Minneapolis,Milwaukee,,,"5,800,000",543,"$10,860,000,000.00","$1,872.41",$3.45,1.81,,,,
Seattle,Minneapolis,,,"8,100,000",2669,"$53,380,000,000.00","$6,590.12",$2.47,8.896666667,,,,
Ottawa,Montreal,,,"5,500,000",200,"$4,000,000,000.00",$727.27,$3.64,0.6666666667,,,,
Houston,New Orleans,,,"7,600,000",559,"$11,180,000,000.00","$1,471.05",$2.63,1.863333333,,,,
Jacksonville,New Orleans,,,"3,000,000",879,"$17,580,000,000.00","$5,860.00",$6.67,2.93,,,,
Cleveland,New York,,,"24,000,000",469,"$9,380,000,000.00",$390.83,$0.83,1.563333333,,,,
Dallas,Oklahoma City,,,"9,000,000",332,"$6,640,000,000.00",$737.78,$2.22,1.106666667,,,,
Kansas City,Omaha,,,"3,200,000",300,"$6,000,000,000.00","$1,875.00",$6.25,1,,,,
Miami,Orlando,,,"9,200,000",380,"$7,600,000,000.00",$826.09,$2.17,1.266666667,,,,
Toronto,Ottawa,,,"7,200,000",449,"$8,980,000,000.00","$1,247.22",$2.78,1.496666667,,,,
New York,Philadelphia,"23,362,099",,"30,000,000",155,"$3,100,000,000.00",$103.33,$0.67,0.5166666667,,,,
Washington DC,Philadelphia,"9,331,587",,"18,000,000",224,"$4,480,000,000.00",$248.89,$1.11,0.7466666667,,,,
Los Angeles,Phoenix,"18,238,998",,"23,000,000",600,"$12,000,000,000.00",$521.74,$0.87,2,,,,
Cleveland,Pittsburgh,,,"6,000,000",214,"$4,280,000,000.00",$713.33,$3.33,0.7133333333,,,,
Washington DC,Pittsburgh,"9,331,587",,"12,000,000",389,"$7,780,000,000.00",$648.33,$1.67,1.296666667,,,,
Seattle,Portland,,,"7,400,000",280,"$5,600,000,000.00",$756.76,$2.70,0.9333333333,,,,
Mexico City,Puebla,,,"23,000,000",131,"$2,620,000,000.00",$113.91,$0.87,0.4366666667,,,,
Guadalajara,Queretaro,,,"5,000,000",383,"$7,660,000,000.00","$1,532.00",$4.00,1.276666667,,,,
Raleigh,Richmond,,,"2,200,000",274,"$5,480,000,000.00","$2,490.91",$9.09,0.9133333333,,,,
Virginia Beach,Richmond,,,"3,000,000",172,"$3,440,000,000.00","$1,146.67",$6.67,0.5733333333,,,,
Washington DC,Richmond,"9,331,587",,"11,000,000",175,"$3,500,000,000.00",$318.18,$1.82,0.5833333333,,,,
Buffalo,Rochester,"1,213,668",,"3,000,000",123,"$2,460,000,000.00",$820.00,$6.67,0.41,,,,
Portland,Sacramento,,,"5,600,000",933,"$18,660,000,000.00","$3,332.14",$3.57,3.11,,,,
San Francisco,Sacramento,"8,370,967",,"10,800,000",139,"$2,780,000,000.00",$257.41,$1.85,0.4633333333,,,,
Denver,Salt Lake City,,,"5,700,000",838,"$16,760,000,000.00","$2,940.35",$3.51,2.793333333,,,,
Portland,Salt Lake City,,,"5,400,000",1243,"$24,860,000,000.00","$4,603.70",$3.70,4.143333333,,,,
Sacramento,Salt Lake City,,,"4,800,000",1050,"$21,000,000,000.00","$4,375.00",$4.17,3.5,,,,
El Paso,San Antonio,,,"3,200,000",887,"$17,740,000,000.00","$5,543.75",$6.25,2.956666667,,,,
Houston,San Antonio,,,"8,500,000",318,"$6,360,000,000.00",$748.24,$2.35,1.06,,,,
Los Angeles,San Diego,"18,238,998",,"22,000,000",206,"$4,120,000,000.00",$187.27,$0.91,0.6866666667,,,,
Leon,San Luis Potosi,,,"2,600,000",190,"$3,800,000,000.00","$1,461.54",$7.69,0.6333333333,,,,
Monterrey,San Luis Potosi,,,"5,000,000",515,"$10,300,000,000.00","$2,060.00",$4.00,1.716666667,,,,
Torreon,San Luis Potosi,,,"2,300,000",576,"$11,520,000,000.00","$5,008.70",$8.70,1.92,,,,
Guatemala City,San Pedro Sula,,,"6,000,000",424,"$8,480,000,000.00","$1,413.33",$3.33,1.413333333,,,,
Guatemala City,San Salvador,,,"6,200,000",230,"$4,600,000,000.00",$741.94,$3.23,0.7666666667,,,,
Leon,Santiago de Queretaro,,,"2,700,000",169,"$3,380,000,000.00","$1,251.85",$7.41,0.5633333333,,,,
Mexico City,Santiago de Queretaro,,,"22,200,000",219,"$4,380,000,000.00",$197.30,$0.90,0.73,,,,
San Luis Potosi,Santiago de Queretaro,,,"2,200,000",211,"$4,220,000,000.00","$1,918.18",$9.09,0.7033333333,,,,
Tampa,Sarasota,,,"3,700,000",98,"$1,960,000,000.00",$529.73,$5.41,0.3266666667,,,,
Chicago,St. Louis,"9,899,902",,"13,000,000",478,"$9,560,000,000.00",$735.38,$1.54,1.593333333,,,,
Orlando,Tampa,,,"5,700,000",135,"$2,700,000,000.00",$473.68,$3.51,0.45,,,,
Managua,Tegulcigalpa,,,"2,400,000",376,"$7,520,000,000.00","$3,133.33",$8.33,1.253333333,,,,
San Pedro Sula,Tegulcigalpa,,,"2,500,000",250,"$5,000,000,000.00","$2,000.00",$8.00,0.8333333333,,,,
San Salvador,Tegulcigalpa,,,"2,800,000",377,"$7,540,000,000.00","$2,692.86",$7.14,1.256666667,,,,
Mexico City,Toluca,,,"22,000,000",80,"$1,600,000,000.00",$72.73,$0.91,0.2666666667,,,,
Detroit,Toronto,,,"11,000,000",360,"$7,200,000,000.00",$654.55,$1.82,1.2,,,,
Monterrey,Torreon,,,"5,300,000",340,"$6,800,000,000.00","$1,283.02",$3.77,1.133333333,,,,
Phoenix,Tucson,,,"5,300,000",187,"$3,740,000,000.00",$705.66,$3.77,0.6233333333,,,,
Kansas City,Tulsa,,,"3,400,000",437,"$8,740,000,000.00","$2,570.59",$5.88,1.456666667,,,,
Oklahoma City,Tulsa,,,"2,500,000",171,"$3,420,000,000.00","$1,368.00",$8.00,0.57,,,,
Seattle,Vancouver,,,"6,600,000",230,"$4,600,000,000.00",$696.97,$3.03,0.7666666667,,,,
Minneapolis,Winnipeg,,,"4,700,000",740,"$14,800,000,000.00","$3,148.94",$4.26,2.466666667,,,,