Airlines,Destinations,Refs
Air Canada ,Toronto–Pearson ,[61] 
Air Canada Express ,Montréal–Trudeau ,[61] 
American Airlines ,"Atlanta, Aruba (begins June 8, 2019),[62] Boston, Charlotte, Chicago–O’Hare, Dallas/Fort Worth, Miami, Nassau,[63] Orlando, Philadelphia, Washington–National
Seasonal: Eagle/Vail,[64] Jackson Hole (begins June 8, 2019),[65] West Palm Beach ",[66] 
American Eagle ,"Akron/Canton, Atlanta, Charleston (SC), Charlottesville (VA), Cincinnati, Cleveland, Chicago–O’Hare, Columbia (SC) (begins May 3, 2019),[65] Columbus–Glenn, Dayton, Detroit, Fayetteville/Bentonville, Greensboro, Indianapolis, Knoxville (begins February 14, 2019),[67] Louisville, Memphis, Miami, Minneapolis/St. Paul, Montréal–Trudeau, Nashville, Norfolk, Philadelphia, Pittsburgh, Portland (ME), Raleigh/Durham, Richmond, Roanoke, St. Louis, Savannah, Toronto–Pearson, Wilmington (NC)
Seasonal: Asheville (begins May 4, 2019),[65] Augusta (GA), Bangor, Daytona Beach (begins May 4, 2019),[65] Halifax (begins June 15, 2019),[65] Martha's Vineyard, Myrtle Beach, Nantucket, Traverse City ",[66] 
Delta Air Lines ,"Atlanta, Boston, Chicago–O'Hare, Dallas/Fort Worth, Denver, Detroit, Fort Lauderdale, Fort Myers, Houston–Intercontinental (begins April 10, 2019)[68], Miami, Minneapolis/St. Paul, New Orleans, Orlando, Tampa, West Palm Beach
Seasonal: Cincinnati, Sarasota ",[69] 
Delta Connection ,"Bangor, Birmingham (AL), Boston, Buffalo, Burlington (VT), Charleston (SC), Charlotte, Charlottesville (VA), Chattanooga, Chicago–O'Hare, Cincinnati, Cleveland, Columbia (SC), Columbus–Glenn, Dallas/Fort Worth, Des Moines, Fayetteville/Bentonville, Fort Myers, Grand Rapids, Greensboro, Greenville/Spartanburg, Houston–Intercontinental, Indianapolis, Jacksonville (FL), Kansas City, Knoxville, Lexington, Louisville, Madison, Manchester (NH), Memphis, Milwaukee, Minneapolis/St. Paul, Montréal–Trudeau, Nashville, Norfolk, Omaha, Ottawa, Pittsburgh, Portland (ME), Raleigh/Durham, Richmond, Rochester (NY), St. Louis, Sarasota, Savannah, Syracuse, Washington–National
Seasonal: Augusta (GA), Halifax, Hilton Head (begins June 8, 2019),[70] Key West (begins March 9, 2019),[71] Martha's Vineyard, Myrtle Beach, Nantucket, Traverse City, Wilmington (NC) ",[69] 
Frontier Airlines ,"Atlanta
Seasonal: Cincinnati, Denver, Miami, Orlando ",[72] 
JetBlue Airways ,"Boston, Fort Lauderdale, Orlando, West Palm Beach
Seasonal: Nantucket (begins June 15, 2019)[73] ",[74] 
Rectrix Shuttle ,"Seasonal: Hyannis, Nantucket ",[75] 
Southwest Airlines ,"Atlanta, Chicago–Midway, Dallas–Love, Denver, Houston–Hobby, Kansas City, Milwaukee, Nashville, New Orleans, Orlando, St. Louis, Tampa, West Palm Beach
Seasonal: Fort Lauderdale, Phoenix–Sky Harbor, San Antonio ",[76] 
Spirit Airlines ,"Chicago–O'Hare, Dallas/Fort Worth, Detroit, Fort Lauderdale, Myrtle Beach ",[77] 
United Airlines ,"Chicago–O'Hare, Denver, Houston–Intercontinental
Seasonal: Montrose",[78] 
United Express ,"Chicago–O'Hare, Cleveland, Houston–Intercontinental, Washington–Dulles ",[78] 
WestJet ,Toronto–Pearson ,[79] 
